{
  "dashboard_wrapper":{
    "service_provider_name":"Topcoder Inc",
    "message_type":"request",
    "status":"success",
    "transmission_type":"async",
    "replay_endpoint_type":"SQS",
    "replay_endpoint":"api.topcoder.com",
    "timestamp":"2018-01-01",
    "message":{
      "header":{
        "requesting_system":"topcoder",
        "requesting_system_message_id":"1212",
        "service_name":"mocker",
        "service_version":"0.0.1",
        "user_id":"1212",
        "replay_message":false,
        "coorelation_id":"c0eebc99-9c0b-4ef8-bb6d-6bb9bd380a11"
      },
      "sqs_async":"sqs_async"
    }
  }
}